{
    "editor.fontFamily": "DejaVu Sans Mono",
    "window.zoomLevel": 1,
    "workbench.iconTheme": "material-icon-theme",
    "editor.suggestSelection": "first",
    "vsintellicode.modify.editor.suggestSelection": "automaticallyOverrodeDefaultValue",
    "java.home": "/home/soconnor/wpilib/2020/jdk",
    "git.enableSmartCommit": true,
    "files.exclude": {
        "**/.classpath": true,
        "**/.project": true,
        "**/.settings": true,
        "**/.factorypath": true
    },
    "terminal.integrated.rendererType": "dom",
    "workbench.colorTheme": "CodeSandbox Black"
}